[
  {
    "ParameterKey": "InstanceType",
    "ParameterValue": "t2.xlarge"
  },
  {
    "ParameterKey": "WebGroupInstanceDesiredCapacity",
    "ParameterValue": "2"
  },
  {
    "ParameterKey": "WebGroupInstanceMinCapacity",
    "ParameterValue": "2"
  },
  {
    "ParameterKey": "ImageId",
    "ParameterValue": "ami-d05d4fb0"
  },
  {
    "ParameterKey": "PrivateSubnetIds",
    "ParameterValue": "subnet-5445fb33,subnet-009d535b"
  },
  {
    "ParameterKey": "PublicSubnetIds",
    "ParameterValue": "subnet-3849f75f,subnet-f59e50ae"
  },
  {
    "ParameterKey": "DefaultSecurityGroup",
    "ParameterValue": "sg-3890975e,sg-fa92959c"
  },
  {
    "ParameterKey": "WebSecurityGroups",
    "ParameterValue": "sg-448b8c22,sg-da8a8dbc"
  },
  {
    "ParameterKey": "AppName",
    "ParameterValue": "Carvana-VAuto-Parallelizer-API-Prod"
  },
  {
    "ParameterKey": "EnvironmentName",
    "ParameterValue": "Prod"
  },
  {
    "ParameterKey": "ResourceGroupName",
    "ParameterValue": "Carvana-VAuto-Parallelizer-API-Prod"
  },
  {
    "ParameterKey": "CodedeployApplicationName",
    "ParameterValue": "Carvana-VAuto-Parallelizer-API-Prod"
  },
  {
    "ParameterKey": "CodedeployServiceRoleArn",
    "ParameterValue": "arn:aws:iam::696031297780:role/Carvana-CodeDeploy-TrustRole"
  },
  {
    "ParameterKey": "KeyName",
    "ParameterValue": "Carvana-AWS-KP-Prod"
  },
  {
    "ParameterKey": "HealthCheckSupervisorFileLocation",
    "ParameterValue": "/home/ubuntu/projects/services/vauto_parallelizer/cloudformation/supervisord-vauto-parallelizer-api-heath-check.conf"
  },
  {
    "ParameterKey": "SplunkIndex",
    "ParameterValue": "carvana_inventoryvauto_prod"
  },
  {
    "ParameterKey": "IAMRole",
    "ParameterValue": "Carvana-EC2-VAuto-InstanceRole"
  },
  {
      "ParameterKey": "APIName",
      "ParameterValue": "Vauto Parallelizer"
  },
  {
      "ParameterKey": "APIGatewayBasePath",
      "ParameterValue": "vauto"
  },
  {
    "ParameterKey": "APIGatewayDomainName",
    "ParameterValue": "apimaws.carvana.io"
  }
]
